\relax 
\providecommand\hyper@newdestlabel[2]{}
\providecommand\HyperFirstAtBeginDocument{\AtBeginDocument}
\HyperFirstAtBeginDocument{\ifx\hyper@anchor\@undefined
\global\let\oldcontentsline\contentsline
\gdef\contentsline#1#2#3#4{\oldcontentsline{#1}{#2}{#3}}
\global\let\oldnewlabel\newlabel
\gdef\newlabel#1#2{\newlabelxx{#1}#2}
\gdef\newlabelxx#1#2#3#4#5#6{\oldnewlabel{#1}{{#2}{#3}}}
\AtEndDocument{\ifx\hyper@anchor\@undefined
\let\contentsline\oldcontentsline
\let\newlabel\oldnewlabel
\fi}
\fi}
\global\let\hyper@last\relax 
\gdef\HyperFirstAtBeginDocument#1{#1}
\providecommand\HyField@AuxAddToFields[1]{}
\providecommand\HyField@AuxAddToCoFields[2]{}
\citation{ROOT}
\@writefile{toc}{\contentsline {section}{\numberline {1}Introduction}{1}{section.1}}
\@writefile{toc}{\contentsline {section}{\numberline {2}Methods}{1}{section.2}}
\@writefile{toc}{\contentsline {subsection}{\numberline {2.1}Rectangular Integration}{1}{subsection.2.1}}
\@writefile{toc}{\contentsline {subsection}{\numberline {2.2}Trapezoidal Integration}{2}{subsection.2.2}}
\newlabel{eq:access_r}{{1}{2}{Trapezoidal Integration}{equation.2.1}{}}
\newlabel{eq:access_t}{{2}{2}{Trapezoidal Integration}{equation.2.2}{}}
\@writefile{toc}{\contentsline {subsection}{\numberline {2.3}Simple Monte Carlo Integration}{2}{subsection.2.3}}
\newlabel{eq:access_mc}{{3}{3}{Simple Monte Carlo Integration}{equation.2.3}{}}
\@writefile{toc}{\contentsline {subsection}{\numberline {2.4}Integrating Functions from 0 to \(\infty \)}{3}{subsection.2.4}}
\@writefile{toc}{\contentsline {section}{\numberline {3}Results}{3}{section.3}}
\@writefile{toc}{\contentsline {subsection}{\numberline {3.1}The Rectangular and Trapezoidal Methods Applied to Simple Functions}{3}{subsection.3.1}}
\newlabel{fig:rect_trap_func1}{{1(a)}{4}{Subfigure 1(a)}{subfigure.1.1}{}}
\newlabel{sub@fig:rect_trap_func1}{{(a)}{4}{Subfigure 1(a)\relax }{subfigure.1.1}{}}
\newlabel{fig:rect_trap_func2}{{1(b)}{4}{Subfigure 1(b)}{subfigure.1.2}{}}
\newlabel{sub@fig:rect_trap_func2}{{(b)}{4}{Subfigure 1(b)\relax }{subfigure.1.2}{}}
\@writefile{lof}{\contentsline {figure}{\numberline {1}{\ignorespaces Estimating the integrals of functions \(f(x)=1\), \(f(x)=x\), and \(f(x)=x^3\) with the rectangular and trapezoidal methods, plotted as a function of \(N\), where \(N\) represents the number of segments that the function was split up into (it is clear that the more segments you use the more exact your result should be for non-flat functions). These methods give instantaneous convergence for \(f(x)=1\) and \(f(x)=x\) which is expected due to the exact ``approximation'' of the area under the curves, and we note that all lines on the plot overlap each other exactly. These methods converge relatively quickly for \(f(x)=x^3\) and in a comparable number of iterations for both methods. The trapezoidal method converges to the exact answer from above while the rectangular method converges to the answer from below, due to the concavity of \(x^3\) and over/under-estimation of the area under the curve.}}{4}{figure.1}}
\@writefile{lof}{\contentsline {subfigure}{\numberline{(a)}{\ignorespaces {}}}{4}{figure.1}}
\@writefile{lof}{\contentsline {subfigure}{\numberline{(b)}{\ignorespaces {}}}{4}{figure.1}}
\@writefile{lof}{\contentsline {subfigure}{\numberline{(c)}{\ignorespaces {}}}{4}{figure.1}}
\newlabel{fig:rect_trap_func123}{{1}{4}{Estimating the integrals of functions \(f(x)=1\), \(f(x)=x\), and \(f(x)=x^3\) with the rectangular and trapezoidal methods, plotted as a function of \(N\), where \(N\) represents the number of segments that the function was split up into (it is clear that the more segments you use the more exact your result should be for non-flat functions). These methods give instantaneous convergence for \(f(x)=1\) and \(f(x)=x\) which is expected due to the exact ``approximation'' of the area under the curves, and we note that all lines on the plot overlap each other exactly. These methods converge relatively quickly for \(f(x)=x^3\) and in a comparable number of iterations for both methods. The trapezoidal method converges to the exact answer from above while the rectangular method converges to the answer from below, due to the concavity of \(x^3\) and over/under-estimation of the area under the curve}{figure.1}{}}
\newlabel{fig:resid_rt_1}{{2(a)}{5}{Subfigure 2(a)}{subfigure.2.1}{}}
\newlabel{sub@fig:resid_rt_1}{{(a)}{5}{Subfigure 2(a)\relax }{subfigure.2.1}{}}
\newlabel{fig:resid_rt_2}{{2(b)}{5}{Subfigure 2(b)}{subfigure.2.2}{}}
\newlabel{sub@fig:resid_rt_2}{{(b)}{5}{Subfigure 2(b)\relax }{subfigure.2.2}{}}
\@writefile{lof}{\contentsline {figure}{\numberline {2}{\ignorespaces The residuals plots for both the rectangular and trapezoidal methods estimating the integrals of \(f(x)=1\), \(f(x)=x\), and \(f(x)=x^3\). On the y-axes we have plotted the exact error on the estimation of the integral subtracted from the calculated relative error at each step in the algorithm. We ideally want the two measures of error to be the same, therefore we want the y-axis values as close to 0 as possible. We see in (a) and (b) that the values are 0 everywhere, which is what we expect since the method instantaneously reports the correct result and the calculated precision is identically 0 as it should be. In (c) we see that the value of the residual does converge to 0 relatively quickly, but it does take a few iterations to get there. We can also see that the rectangular errors have been more over-estimated early on than the trapezoidal errors.}}{5}{figure.2}}
\@writefile{lof}{\contentsline {subfigure}{\numberline{(a)}{\ignorespaces {\(f(x)=1\)}}}{5}{figure.2}}
\@writefile{lof}{\contentsline {subfigure}{\numberline{(b)}{\ignorespaces {\(f(x)=x\)}}}{5}{figure.2}}
\@writefile{lof}{\contentsline {subfigure}{\numberline{(c)}{\ignorespaces {\(f(x)=x^3\)}}}{5}{figure.2}}
\newlabel{fig:resid_rt_123}{{2}{5}{The residuals plots for both the rectangular and trapezoidal methods estimating the integrals of \(f(x)=1\), \(f(x)=x\), and \(f(x)=x^3\). On the y-axes we have plotted the exact error on the estimation of the integral subtracted from the calculated relative error at each step in the algorithm. We ideally want the two measures of error to be the same, therefore we want the y-axis values as close to 0 as possible. We see in (a) and (b) that the values are 0 everywhere, which is what we expect since the method instantaneously reports the correct result and the calculated precision is identically 0 as it should be. In (c) we see that the value of the residual does converge to 0 relatively quickly, but it does take a few iterations to get there. We can also see that the rectangular errors have been more over-estimated early on than the trapezoidal errors}{figure.2}{}}
\@writefile{toc}{\contentsline {subsection}{\numberline {3.2}The Monte Carlo Method}{6}{subsection.3.2}}
\@writefile{lof}{\contentsline {figure}{\numberline {3}{\ignorespaces Estimated values of the integral of \(f(x)=1\) from 0 to 5 using the simple MC method, plotted as a function of \(N\), where \(N\) represents the number of samplings used to calculate an answer. It gets it right on the first iteration, with 0 RMS and uncertainty, as expected since \(f(x)\) is completely flat and thus any point in the range is going to be identically the average value of the function.}}{6}{figure.3}}
\newlabel{MC_func1}{{3}{6}{Estimated values of the integral of \(f(x)=1\) from 0 to 5 using the simple MC method, plotted as a function of \(N\), where \(N\) represents the number of samplings used to calculate an answer. It gets it right on the first iteration, with 0 RMS and uncertainty, as expected since \(f(x)\) is completely flat and thus any point in the range is going to be identically the average value of the function}{figure.3}{}}
\@writefile{lof}{\contentsline {figure}{\numberline {4}{\ignorespaces Estimated values of the integral of \(f(x)=x\) from 0 to 5 using the simple MC method, plotted as a function of \(N\), where \(N\) represents the number of samplings used to calculate an answer. It takes more iterations to plateau to the correct answer compared to the rectangular and trapezoidal method. The RMS converges to a fixed number as expected which describes the ``width'' of the function we're integrating, and the uncertainty asymptotes to 0 as the number of iterations increases.}}{7}{figure.4}}
\newlabel{MC_func2}{{4}{7}{Estimated values of the integral of \(f(x)=x\) from 0 to 5 using the simple MC method, plotted as a function of \(N\), where \(N\) represents the number of samplings used to calculate an answer. It takes more iterations to plateau to the correct answer compared to the rectangular and trapezoidal method. The RMS converges to a fixed number as expected which describes the ``width'' of the function we're integrating, and the uncertainty asymptotes to 0 as the number of iterations increases}{figure.4}{}}
\@writefile{lof}{\contentsline {figure}{\numberline {5}{\ignorespaces Estimated values of the integral of \(f(x)=x^3\) from 0 to 5 using the simple MC method, plotted as a function of \(N\), where \(N\) represents the number of samplings used to calculate an answer. It takes more iterations to plateau to an answer compared to the rectangular and trapezoidal method, and compared to \(f(x)=x\) with the MC method as well. The RMS converges to a fixed number as expected which describes the ``width'' of the function we're integrating, and the uncertainty asymptotes to 0 as the number of iterations increases.}}{8}{figure.5}}
\newlabel{MC_func3}{{5}{8}{Estimated values of the integral of \(f(x)=x^3\) from 0 to 5 using the simple MC method, plotted as a function of \(N\), where \(N\) represents the number of samplings used to calculate an answer. It takes more iterations to plateau to an answer compared to the rectangular and trapezoidal method, and compared to \(f(x)=x\) with the MC method as well. The RMS converges to a fixed number as expected which describes the ``width'' of the function we're integrating, and the uncertainty asymptotes to 0 as the number of iterations increases}{figure.5}{}}
\@writefile{lof}{\contentsline {figure}{\numberline {6}{\ignorespaces Estimated values of the integral of \(f(x)=x\) from 0 to 5 using the simple MC method with the sampling function given by \(w(x)=f(x)\), plotted as a function of \(N\), where \(N\) represents the number of samplings used to calculate an answer. In this case, we see what we expect to see -- instantaneous convergence. As the exact function being integrated is being used for the weighting, this makes sense and gives us confidence in the performance of our algorithm.}}{9}{figure.6}}
\newlabel{MC_func2_2}{{6}{9}{Estimated values of the integral of \(f(x)=x\) from 0 to 5 using the simple MC method with the sampling function given by \(w(x)=f(x)\), plotted as a function of \(N\), where \(N\) represents the number of samplings used to calculate an answer. In this case, we see what we expect to see -- instantaneous convergence. As the exact function being integrated is being used for the weighting, this makes sense and gives us confidence in the performance of our algorithm}{figure.6}{}}
\@writefile{lof}{\contentsline {figure}{\numberline {7}{\ignorespaces Estimated values of the integral of \(f(x)=x^3\) from 0 to 5 using the simple MC method with the sampling function given by \(w(x)=f(x)\), plotted as a function of \(N\), where \(N\) represents the number of samplings used to calculate an answer. In this case, we see what we expect to see -- instantaneous convergence. As the exact function being integrated is being used for the weighting, this makes sense and gives us confidence in the performance of our algorithm.}}{10}{figure.7}}
\newlabel{MC_func3_3}{{7}{10}{Estimated values of the integral of \(f(x)=x^3\) from 0 to 5 using the simple MC method with the sampling function given by \(w(x)=f(x)\), plotted as a function of \(N\), where \(N\) represents the number of samplings used to calculate an answer. In this case, we see what we expect to see -- instantaneous convergence. As the exact function being integrated is being used for the weighting, this makes sense and gives us confidence in the performance of our algorithm}{figure.7}{}}
\@writefile{lof}{\contentsline {figure}{\numberline {8}{\ignorespaces The residual errors (\(\text  {Residual}=|p_n-(I_n-I)|\)) calculated as a function of \(N\) for \(f(x)=1\). Since the algorithm converged instantaneously with 0 uncertainty both calculated and in actuality, it makes sense that the residual values converge to 0 immediately.}}{11}{figure.8}}
\newlabel{MC_resid_func1}{{8}{11}{The residual errors (\(\text {Residual}=|p_n-(I_n-I)|\)) calculated as a function of \(N\) for \(f(x)=1\). Since the algorithm converged instantaneously with 0 uncertainty both calculated and in actuality, it makes sense that the residual values converge to 0 immediately}{figure.8}{}}
\@writefile{lof}{\contentsline {figure}{\numberline {9}{\ignorespaces The residual errors (\(\text  {Residual}=|p_n-(I_n-I)|\)) calculated as a function of \(N\) for \(f(x)=x\). It converges to 0 eventually, while at the beginning it is a bit more fluctuating, though throughout the whole range it is still relatively small, thus we can be sure in our level of confidence for the performance of our algorithm and see it is indeed performing fairly well.}}{12}{figure.9}}
\newlabel{MC_resid_func2}{{9}{12}{The residual errors (\(\text {Residual}=|p_n-(I_n-I)|\)) calculated as a function of \(N\) for \(f(x)=x\). It converges to 0 eventually, while at the beginning it is a bit more fluctuating, though throughout the whole range it is still relatively small, thus we can be sure in our level of confidence for the performance of our algorithm and see it is indeed performing fairly well}{figure.9}{}}
\@writefile{lof}{\contentsline {figure}{\numberline {10}{\ignorespaces The residual errors (\(\text  {Residual}=|p_n-(I_n-I)|\)) calculated as a function of \(N\) for \(f(x)=x^3\). Similar to the behavior seen for \(f(x)=x\), it converges to 0 eventually, while at the beginning it is a bit more fluctuating, though throughout the whole range it is still relatively small, thus we can be sure in our level of confidence for the performance of our algorithm and see it is indeed performing fairly well. We note that the errors at the beginning are just a bit larger than in the previous case.}}{13}{figure.10}}
\newlabel{MC_resid_func3}{{10}{13}{The residual errors (\(\text {Residual}=|p_n-(I_n-I)|\)) calculated as a function of \(N\) for \(f(x)=x^3\). Similar to the behavior seen for \(f(x)=x\), it converges to 0 eventually, while at the beginning it is a bit more fluctuating, though throughout the whole range it is still relatively small, thus we can be sure in our level of confidence for the performance of our algorithm and see it is indeed performing fairly well. We note that the errors at the beginning are just a bit larger than in the previous case}{figure.10}{}}
\@writefile{lof}{\contentsline {figure}{\numberline {11}{\ignorespaces Estimated values of the integral of \(f(x)=200\qopname  \relax o{exp}(-(x-3)^{2}/0.00002)+2\qopname  \relax o{exp}(x-3)\) from 0 to 4 using the simple MC method with uniform weighting, plotted as a function of \(N\), where \(N\) represents the number of samplings used to calculate an answer. In this case, we see the estimation of the value of the integral eventually does converge to the correct result as usual. Note that it took many more iterations to converge, but due to memory restrictions and how ROOT handles creating images from these plots, I limited the number of iterations that I display here. The exact values are found at the end of this report in Table 1.}}{15}{figure.11}}
\newlabel{MC_func5}{{11}{15}{Estimated values of the integral of \(f(x)=200\exp (-(x-3)^{2}/0.00002)+2\exp (x-3)\) from 0 to 4 using the simple MC method with uniform weighting, plotted as a function of \(N\), where \(N\) represents the number of samplings used to calculate an answer. In this case, we see the estimation of the value of the integral eventually does converge to the correct result as usual. Note that it took many more iterations to converge, but due to memory restrictions and how ROOT handles creating images from these plots, I limited the number of iterations that I display here. The exact values are found at the end of this report in Table 1}{figure.11}{}}
\@writefile{lof}{\contentsline {figure}{\numberline {12}{\ignorespaces Estimated values of the integral of \(f(x)=200\qopname  \relax o{exp}(-(x-3)^{2}/0.00002)+2\qopname  \relax o{exp}(x-3)\) from 0 to 4 using the simple MC method with the weighting given by \(w(x)=1+\qopname  \relax o{exp}(-(x-3)^2/0.0001)\), plotted as a function of \(N\), where \(N\) represents the number of samplings used to calculate an answer. In this case, we see the estimation of the value of the integral does eventually converge to a result but now it is not the exact correct result -- it is off by \nobreakspace  {}0.2. It did take fewer iterations and CPU time than the uniform sampling, so my thinking in these results is that the sharp peak in the weighting causes loss of precision while you iterate, though this is something to look into.}}{16}{figure.12}}
\newlabel{MC_func5_sharppeak1}{{12}{16}{Estimated values of the integral of \(f(x)=200\exp (-(x-3)^{2}/0.00002)+2\exp (x-3)\) from 0 to 4 using the simple MC method with the weighting given by \(w(x)=1+\exp (-(x-3)^2/0.0001)\), plotted as a function of \(N\), where \(N\) represents the number of samplings used to calculate an answer. In this case, we see the estimation of the value of the integral does eventually converge to a result but now it is not the exact correct result -- it is off by ~0.2. It did take fewer iterations and CPU time than the uniform sampling, so my thinking in these results is that the sharp peak in the weighting causes loss of precision while you iterate, though this is something to look into}{figure.12}{}}
\@writefile{lof}{\contentsline {figure}{\numberline {13}{\ignorespaces Estimated values of the integral of \(f(x)=200\qopname  \relax o{exp}(-(x-3)^{2}/0.00002)+2\qopname  \relax o{exp}(x-3)\) from 0 to 4 using the simple MC method with the weighting given by \(w(x)=1+\qopname  \relax o{exp}(-(x-3)^2/0.00001)\) (the width is made an order of magnitude ``peakier'' in this case), plotted as a function of \(N\), where \(N\) represents the number of samplings used to calculate an answer. In this case, we see the estimation of the value of the integral does eventually converge to a result but it is not the exact correct result again, and actually deviates by a larger amount -- it is off by \nobreakspace  {}0.3. It did actually take fewer iterations and CPU time than both the uniform sampling and the peaked function with a larger width, so my thinking in these results is that the sharp peak in the weighting causes loss of precision while you iterate, though this is something to look into. I guess this also tells you that you can't have 100\% confidence that your algorithm will work the same way when applied to every case, and that if you have a more troublesome function you need to examine things more closely if you do want to be confident in your result. If you just need a very rough approximation, than it seems like the deviations given here wouldn't be too bad, and then it is a tradeoff between how much accuracy you want versus how long you want your algorithm to run for. If you use uniform sampling you can still get an accurate answer, it will just take a lot longer to get to it.}}{17}{figure.13}}
\newlabel{MC_func5_sharppeak2}{{13}{17}{Estimated values of the integral of \(f(x)=200\exp (-(x-3)^{2}/0.00002)+2\exp (x-3)\) from 0 to 4 using the simple MC method with the weighting given by \(w(x)=1+\exp (-(x-3)^2/0.00001)\) (the width is made an order of magnitude ``peakier'' in this case), plotted as a function of \(N\), where \(N\) represents the number of samplings used to calculate an answer. In this case, we see the estimation of the value of the integral does eventually converge to a result but it is not the exact correct result again, and actually deviates by a larger amount -- it is off by ~0.3. It did actually take fewer iterations and CPU time than both the uniform sampling and the peaked function with a larger width, so my thinking in these results is that the sharp peak in the weighting causes loss of precision while you iterate, though this is something to look into. I guess this also tells you that you can't have 100\% confidence that your algorithm will work the same way when applied to every case, and that if you have a more troublesome function you need to examine things more closely if you do want to be confident in your result. If you just need a very rough approximation, than it seems like the deviations given here wouldn't be too bad, and then it is a tradeoff between how much accuracy you want versus how long you want your algorithm to run for. If you use uniform sampling you can still get an accurate answer, it will just take a lot longer to get to it}{figure.13}{}}
\@writefile{lof}{\contentsline {figure}{\numberline {14}{\ignorespaces Estimated values of the integral of \(f(x)=200\qopname  \relax o{exp}(-(x-3)^{2}/0.00002)+2\qopname  \relax o{exp}(x-3)\) from 0 to 4 using the simple MC method with the weighting function being the exact function, plotted as a function of \(N\), where \(N\) represents the number of samplings used to calculate an answer. In this case, we see of course instantaneous convergence which we expect. It converges to the correct result as well, which gives us confidence in the performance of our algorithm.}}{18}{figure.14}}
\newlabel{MC_func5_func5}{{14}{18}{Estimated values of the integral of \(f(x)=200\exp (-(x-3)^{2}/0.00002)+2\exp (x-3)\) from 0 to 4 using the simple MC method with the weighting function being the exact function, plotted as a function of \(N\), where \(N\) represents the number of samplings used to calculate an answer. In this case, we see of course instantaneous convergence which we expect. It converges to the correct result as well, which gives us confidence in the performance of our algorithm}{figure.14}{}}
\@writefile{lof}{\contentsline {figure}{\numberline {15}{\ignorespaces The residual errors (\(\text  {Residual}=|p_n-(I_n-I)|\)) calculated as a function of \(N\) for \(f(x)=200\qopname  \relax o{exp}(-(x-3)^2/0.00002)+2\qopname  \relax o{exp}(x-3)\). It converges to 0 eventually, while at the beginning it is a bit more fluctuating, though throughout the whole range it is still relatively small, thus we can be sure in our level of confidence for the performance of our algorithm and see it is indeed performing fairly well.}}{19}{figure.15}}
\newlabel{MC_resid_func5}{{15}{19}{The residual errors (\(\text {Residual}=|p_n-(I_n-I)|\)) calculated as a function of \(N\) for \(f(x)=200\exp (-(x-3)^2/0.00002)+2\exp (x-3)\). It converges to 0 eventually, while at the beginning it is a bit more fluctuating, though throughout the whole range it is still relatively small, thus we can be sure in our level of confidence for the performance of our algorithm and see it is indeed performing fairly well}{figure.15}{}}
\@writefile{lof}{\contentsline {figure}{\numberline {16}{\ignorespaces Estimated values of the integral of \(f(x)=\frac  {x^4}{(1+x^2)^3}\) from 0 to \(\infty \) using the simple MC method, plotted as a function of \(N\), where \(N\) represents the number of samplings used to calculate an answer. In this case, we see the estimation of the value of the integral eventually does converge to the correct result. The RMS converges to a fixed number as expected which describes the ``width'' of the function we're integrating, and the uncertainty asymptotes to 0 as the number of iterations increases.}}{20}{figure.16}}
\newlabel{MC_func4}{{16}{20}{Estimated values of the integral of \(f(x)=\frac {x^4}{(1+x^2)^3}\) from 0 to \(\infty \) using the simple MC method, plotted as a function of \(N\), where \(N\) represents the number of samplings used to calculate an answer. In this case, we see the estimation of the value of the integral eventually does converge to the correct result. The RMS converges to a fixed number as expected which describes the ``width'' of the function we're integrating, and the uncertainty asymptotes to 0 as the number of iterations increases}{figure.16}{}}
\@writefile{lof}{\contentsline {figure}{\numberline {17}{\ignorespaces Estimated values of the integral of \(f(x)=\frac  {x^4}{(1+x^2)^3}\) from 0 to \(\infty \) using the simple MC method with the polynomial approximation weighting given by \(w(x)=1-1.1x^2+0.25x^3\), plotted as a function of \(N\), where \(N\) represents the number of samplings used to calculate an answer. In this case, we see the estimation of the value of the integral eventually does converge to the correct result, and in significantly fewer iterations than when sampling uniformly. For the exact comparison, see Table 1.}}{21}{figure.17}}
\newlabel{MC_func4_poly}{{17}{21}{Estimated values of the integral of \(f(x)=\frac {x^4}{(1+x^2)^3}\) from 0 to \(\infty \) using the simple MC method with the polynomial approximation weighting given by \(w(x)=1-1.1x^2+0.25x^3\), plotted as a function of \(N\), where \(N\) represents the number of samplings used to calculate an answer. In this case, we see the estimation of the value of the integral eventually does converge to the correct result, and in significantly fewer iterations than when sampling uniformly. For the exact comparison, see Table 1}{figure.17}{}}
\@writefile{lof}{\contentsline {figure}{\numberline {18}{\ignorespaces Estimated values of the integral of \(f(x)=\frac  {x^4}{(1+x^2)^3}\) from 0 to \(\infty \) using the simple MC method with the weighting function being the exact function, plotted as a function of \(N\), where \(N\) represents the number of samplings used to calculate an answer. In this case, we see of course instantaneous convergence which we expect. It converges to the correct result as well, which gives us confidence in the performance of our algorithm.}}{22}{figure.18}}
\newlabel{MC_func4_func4}{{18}{22}{Estimated values of the integral of \(f(x)=\frac {x^4}{(1+x^2)^3}\) from 0 to \(\infty \) using the simple MC method with the weighting function being the exact function, plotted as a function of \(N\), where \(N\) represents the number of samplings used to calculate an answer. In this case, we see of course instantaneous convergence which we expect. It converges to the correct result as well, which gives us confidence in the performance of our algorithm}{figure.18}{}}
\@writefile{lof}{\contentsline {figure}{\numberline {19}{\ignorespaces The residual errors (\(\text  {Residual}=|p_n-(I_n-I)|\)) calculated as a function of \(N\) for \(f(x)=\frac  {x^4}{(1+x^2)^2}\). It converges to 0 eventually, while at the beginning it is a bit more fluctuating, though throughout the whole range it is still relatively \textit  {very} small, thus we can be sure in our level of confidence for the performance of our algorithm and see it is indeed performing fairly well.}}{23}{figure.19}}
\newlabel{MC_resid_func4}{{19}{23}{The residual errors (\(\text {Residual}=|p_n-(I_n-I)|\)) calculated as a function of \(N\) for \(f(x)=\frac {x^4}{(1+x^2)^2}\). It converges to 0 eventually, while at the beginning it is a bit more fluctuating, though throughout the whole range it is still relatively \textit {very} small, thus we can be sure in our level of confidence for the performance of our algorithm and see it is indeed performing fairly well}{figure.19}{}}
\@writefile{lof}{\contentsline {figure}{\numberline {20}{\ignorespaces The results of applying the MC algorithm integrating \(f(x)=1\) while sampling from \(f(x)=x\) are shown here. We can see that we must be careful to only choose ``smart'' weighting functions for our specific problem, as using the wrong weighting distribution can negatively impact your performance by making the function you're integrating less flat than it started out.}}{24}{figure.20}}
\newlabel{MC_1samplewithx}{{20}{24}{The results of applying the MC algorithm integrating \(f(x)=1\) while sampling from \(f(x)=x\) are shown here. We can see that we must be careful to only choose ``smart'' weighting functions for our specific problem, as using the wrong weighting distribution can negatively impact your performance by making the function you're integrating less flat than it started out}{figure.20}{}}
\newlabel{sec:compare}{{4}{25}{Conclusions}{section.4}{}}
\@writefile{toc}{\contentsline {section}{\numberline {4}Conclusions}{25}{section.4}}
\@writefile{lot}{\contentsline {table}{\numberline {1}{\ignorespaces }}{25}{table.1}}
\newlabel{table:stats}{{1}{25}{}{table.1}{}}
\bibdata{refs}
\bibcite{ROOT}{1}
\bibstyle{elsarticle-num}
