\relax 
\providecommand\hyper@newdestlabel[2]{}
\providecommand\HyperFirstAtBeginDocument{\AtBeginDocument}
\HyperFirstAtBeginDocument{\ifx\hyper@anchor\@undefined
\global\let\oldcontentsline\contentsline
\gdef\contentsline#1#2#3#4{\oldcontentsline{#1}{#2}{#3}}
\global\let\oldnewlabel\newlabel
\gdef\newlabel#1#2{\newlabelxx{#1}#2}
\gdef\newlabelxx#1#2#3#4#5#6{\oldnewlabel{#1}{{#2}{#3}}}
\AtEndDocument{\ifx\hyper@anchor\@undefined
\let\contentsline\oldcontentsline
\let\newlabel\oldnewlabel
\fi}
\fi}
\global\let\hyper@last\relax 
\gdef\HyperFirstAtBeginDocument#1{#1}
\providecommand\HyField@AuxAddToFields[1]{}
\providecommand\HyField@AuxAddToCoFields[2]{}
\@writefile{toc}{\contentsline {section}{\numberline {1}Introduction}{1}{section.1}}
\@writefile{toc}{\contentsline {section}{\numberline {2}Methods}{1}{section.2}}
\@writefile{toc}{\contentsline {subsection}{\numberline {2.1}Minimizing \(\chi ^2\) - General Overview}{1}{subsection.2.1}}
\@writefile{toc}{\contentsline {subsection}{\numberline {2.2}Maximizing Likelihood - General Overview}{1}{subsection.2.2}}
\@writefile{toc}{\contentsline {section}{\numberline {3}Discussion of Results and Conclusions}{2}{section.3}}
\@writefile{toc}{\contentsline {subsection}{\numberline {3.1}General Discussion}{2}{subsection.3.1}}
\@writefile{lof}{\contentsline {figure}{\numberline {1}{\ignorespaces Sample data given in this lab to optimize fits through coding and provided functionality methods in ROOT via the fit panel.}}{2}{figure.1}}
\newlabel{fig:data}{{1}{2}{Sample data given in this lab to optimize fits through coding and provided functionality methods in ROOT via the fit panel}{figure.1}{}}
\@writefile{lot}{\contentsline {table}{\numberline {1}{\ignorespaces }}{2}{table.1}}
\newlabel{table:1d}{{1}{2}{}{table.1}{}}
\@writefile{lot}{\contentsline {table}{\numberline {2}{\ignorespaces }}{2}{table.2}}
\newlabel{table:2d}{{2}{2}{}{table.2}{}}
\@writefile{toc}{\contentsline {subsection}{\numberline {3.2}1-D and 2-D Fits - Simple Method}{3}{subsection.3.2}}
\@writefile{lof}{\contentsline {figure}{\numberline {2}{\ignorespaces Parameter \(p_{0}^{2}\) allowed to vary over the range shown in the plot. The minimal value of the curve corresponds to the value of the parameter that makes the given function fit the data the best, as quantified by each metric.}}{3}{figure.2}}
\newlabel{fig:p0_1d}{{2}{3}{Parameter \(p_{0}^{2}\) allowed to vary over the range shown in the plot. The minimal value of the curve corresponds to the value of the parameter that makes the given function fit the data the best, as quantified by each metric}{figure.2}{}}
\@writefile{lof}{\contentsline {figure}{\numberline {3}{\ignorespaces Parameter \(p_{1}\) allowed to vary over the range shown in the plot. The minimal value of the curve corresponds to the value of the parameter that makes the given function fit the data the best, as quantified by each metric.}}{4}{figure.3}}
\newlabel{fig:p1_1d}{{3}{4}{Parameter \(p_{1}\) allowed to vary over the range shown in the plot. The minimal value of the curve corresponds to the value of the parameter that makes the given function fit the data the best, as quantified by each metric}{figure.3}{}}
\@writefile{lof}{\contentsline {figure}{\numberline {4}{\ignorespaces Parameter \(p_{2}\) allowed to vary over the range shown in the plot. The minimal value of the curve corresponds to the value of the parameter that makes the given function fit the data the best, as quantified by each metric. We see some interesting behavior that we don't see with the other parameters here, where the function is not monotonically increasing over the broad parameter range shown.}}{5}{figure.4}}
\newlabel{fig:p2_1d}{{4}{5}{Parameter \(p_{2}\) allowed to vary over the range shown in the plot. The minimal value of the curve corresponds to the value of the parameter that makes the given function fit the data the best, as quantified by each metric. We see some interesting behavior that we don't see with the other parameters here, where the function is not monotonically increasing over the broad parameter range shown}{figure.4}{}}
\@writefile{lot}{\contentsline {table}{\numberline {3}{\ignorespaces }}{5}{table.3}}
\newlabel{table:resultspart1}{{3}{5}{}{table.3}{}}
\@writefile{lof}{\contentsline {figure}{\numberline {5}{\ignorespaces Parameter \(p_{3}\) allowed to vary over the range shown in the plot. The minimal value of the curve corresponds to the value of the parameter that makes the given function fit the data the best, as quantified by each metric.}}{6}{figure.5}}
\newlabel{fig:p3_1d}{{5}{6}{Parameter \(p_{3}\) allowed to vary over the range shown in the plot. The minimal value of the curve corresponds to the value of the parameter that makes the given function fit the data the best, as quantified by each metric}{figure.5}{}}
\@writefile{lof}{\contentsline {figure}{\numberline {6}{\ignorespaces The plots for \(\chi ^2\) and log likelihood for \(p_0^2\) floating, zoomed in around their minima showing the 1 sigma deviation in both more clearly.}}{7}{figure.6}}
\newlabel{fig:p0_1d_visual_ex}{{6}{7}{The plots for \(\chi ^2\) and log likelihood for \(p_0^2\) floating, zoomed in around their minima showing the 1 sigma deviation in both more clearly}{figure.6}{}}
\@writefile{lof}{\contentsline {figure}{\numberline {7}{\ignorespaces Parameters \(p_{0}^{2}\) and \(p_{1}\) allowed to vary over the ranges shown in the plot. The minimal value of the curve (which are now represented by contours) corresponds to the value of the parameter that makes the given function fit the data the best, as quantified by each metric.}}{8}{figure.7}}
\newlabel{fig:p0p1_2d}{{7}{8}{Parameters \(p_{0}^{2}\) and \(p_{1}\) allowed to vary over the ranges shown in the plot. The minimal value of the curve (which are now represented by contours) corresponds to the value of the parameter that makes the given function fit the data the best, as quantified by each metric}{figure.7}{}}
\@writefile{lof}{\contentsline {figure}{\numberline {8}{\ignorespaces Parameters \(p_{1}\) and \(p_{2}\) allowed to vary over the ranges shown in the plot. The minimal value of the curve (which are now represented by contours) corresponds to the value of the parameter that makes the given function fit the data the best, as quantified by each metric.}}{9}{figure.8}}
\newlabel{fig:p1p2_2d}{{8}{9}{Parameters \(p_{1}\) and \(p_{2}\) allowed to vary over the ranges shown in the plot. The minimal value of the curve (which are now represented by contours) corresponds to the value of the parameter that makes the given function fit the data the best, as quantified by each metric}{figure.8}{}}
\@writefile{lof}{\contentsline {figure}{\numberline {9}{\ignorespaces Parameters \(p_{1}\) and \(p_{3}\) allowed to vary over the ranges shown in the plot. The minimal value of the curve (which are now represented by contours) corresponds to the value of the parameter that makes the given function fit the data the best, as quantified by each metric.}}{10}{figure.9}}
\newlabel{fig:p1p3_2d}{{9}{10}{Parameters \(p_{1}\) and \(p_{3}\) allowed to vary over the ranges shown in the plot. The minimal value of the curve (which are now represented by contours) corresponds to the value of the parameter that makes the given function fit the data the best, as quantified by each metric}{figure.9}{}}
\@writefile{lof}{\contentsline {figure}{\numberline {10}{\ignorespaces Parameters \(p_{2}\) and \(p_{3}\) allowed to vary over the ranges shown in the plot. The minimal value of the curve (which are now represented by contours) corresponds to the value of the parameter that makes the given function fit the data the best, as quantified by each metric.}}{11}{figure.10}}
\newlabel{fig:p2p3_2d}{{10}{11}{Parameters \(p_{2}\) and \(p_{3}\) allowed to vary over the ranges shown in the plot. The minimal value of the curve (which are now represented by contours) corresponds to the value of the parameter that makes the given function fit the data the best, as quantified by each metric}{figure.10}{}}
\@writefile{lof}{\contentsline {figure}{\numberline {11}{\ignorespaces The plots for \(\chi ^2\) and log likelihood for \(p_0^2\) and \(p_1\) floating, zoomed in around their minima showing the 1 sigma deviation in both more clearly.}}{12}{figure.11}}
\newlabel{fig:p0p1_2d_visual_ex}{{11}{12}{The plots for \(\chi ^2\) and log likelihood for \(p_0^2\) and \(p_1\) floating, zoomed in around their minima showing the 1 sigma deviation in both more clearly}{figure.11}{}}
\@writefile{toc}{\contentsline {subsection}{\numberline {3.3}1-D and 2-D Functions - Finding the best fit more efficiently}{13}{subsection.3.3}}
\@writefile{toc}{\contentsline {subsection}{\numberline {3.4}Using the ROOT Fit Panel}{13}{subsection.3.4}}
\@writefile{lot}{\contentsline {table}{\numberline {4}{\ignorespaces }}{14}{table.4}}
\newlabel{table:resultspart2}{{4}{14}{}{table.4}{}}
\@writefile{lof}{\contentsline {figure}{\numberline {12}{\ignorespaces This is an example of where leaving the fit parameter floating over too broad of a range with the ROOT fit panel will simply cause the fit to fail. Notably, this only occurs for the \(\chi ^2\) fits (a), as we can see that when applying a likelihood fit (b) it converges to a reasonable result over the same broad range.}}{15}{figure.12}}
\@writefile{lof}{\contentsline {subfigure}{\numberline{(a)}{\ignorespaces {A \(\chi ^2\) fit using the ROOT fit panel, with the floating parameter range set too broad for ROOT to converge on a reasonable fit.}}}{15}{figure.12}}
\@writefile{lof}{\contentsline {subfigure}{\numberline{(b)}{\ignorespaces {A likelihood fit using the ROOT fit panel, with the floating parameter range set broad, yet ROOT can still converge on a reasonable fit using this method.}}}{15}{figure.12}}
\newlabel{fig:p0_1d_fitpanelbadexample}{{12}{15}{This is an example of where leaving the fit parameter floating over too broad of a range with the ROOT fit panel will simply cause the fit to fail. Notably, this only occurs for the \(\chi ^2\) fits (a), as we can see that when applying a likelihood fit (b) it converges to a reasonable result over the same broad range}{figure.12}{}}
\@writefile{lof}{\contentsline {figure}{\numberline {13}{\ignorespaces A \(\chi ^2\) and likelihood fit using ROOT fit panel, with one parameter floating.}}{16}{figure.13}}
\@writefile{lof}{\contentsline {subfigure}{\numberline{(a)}{\ignorespaces {A \(\chi ^2\) fit using ROOT fit panel.}}}{16}{figure.13}}
\@writefile{lof}{\contentsline {subfigure}{\numberline{(b)}{\ignorespaces {A likelihood fit using ROOT fit panel.}}}{16}{figure.13}}
\newlabel{fig:p0_1d_fitpanel}{{13}{16}{A \(\chi ^2\) and likelihood fit using ROOT fit panel, with one parameter floating}{figure.13}{}}
\@writefile{lof}{\contentsline {figure}{\numberline {14}{\ignorespaces A \(\chi ^2\) and likelihood fit using ROOT fit panel, with one parameter floating.}}{17}{figure.14}}
\@writefile{lof}{\contentsline {subfigure}{\numberline{(a)}{\ignorespaces {A \(\chi ^2\) fit using ROOT fit panel.}}}{17}{figure.14}}
\@writefile{lof}{\contentsline {subfigure}{\numberline{(b)}{\ignorespaces {A likelihood fit using ROOT fit panel.}}}{17}{figure.14}}
\newlabel{fig:p0_1d_fitpanel}{{14}{17}{A \(\chi ^2\) and likelihood fit using ROOT fit panel, with one parameter floating}{figure.14}{}}
\@writefile{lof}{\contentsline {figure}{\numberline {15}{\ignorespaces A \(\chi ^2\) and likelihood fit using ROOT fit panel, with one parameter floating.}}{18}{figure.15}}
\@writefile{lof}{\contentsline {subfigure}{\numberline{(a)}{\ignorespaces {A \(\chi ^2\) fit using ROOT fit panel.}}}{18}{figure.15}}
\@writefile{lof}{\contentsline {subfigure}{\numberline{(b)}{\ignorespaces {A likelihood fit using ROOT fit panel.}}}{18}{figure.15}}
\newlabel{fig:p1_1d_fitpanel}{{15}{18}{A \(\chi ^2\) and likelihood fit using ROOT fit panel, with one parameter floating}{figure.15}{}}
\@writefile{lof}{\contentsline {figure}{\numberline {16}{\ignorespaces A \(\chi ^2\) and likelihood fit using ROOT fit panel, with one parameter floating.}}{19}{figure.16}}
\@writefile{lof}{\contentsline {subfigure}{\numberline{(a)}{\ignorespaces {A \(\chi ^2\) fit using ROOT fit panel.}}}{19}{figure.16}}
\@writefile{lof}{\contentsline {subfigure}{\numberline{(b)}{\ignorespaces {A likelihood fit using ROOT fit panel.}}}{19}{figure.16}}
\newlabel{fig:p2_1d_fitpanel}{{16}{19}{A \(\chi ^2\) and likelihood fit using ROOT fit panel, with one parameter floating}{figure.16}{}}
\@writefile{lof}{\contentsline {figure}{\numberline {17}{\ignorespaces A \(\chi ^2\) and likelihood fit using ROOT fit panel, with one parameter floating.}}{20}{figure.17}}
\@writefile{lof}{\contentsline {subfigure}{\numberline{(a)}{\ignorespaces {A \(\chi ^2\) fit using ROOT fit panel.}}}{20}{figure.17}}
\@writefile{lof}{\contentsline {subfigure}{\numberline{(b)}{\ignorespaces {A likelihood fit using ROOT fit panel.}}}{20}{figure.17}}
\newlabel{fig:p3_1d_fitpanel}{{17}{20}{A \(\chi ^2\) and likelihood fit using ROOT fit panel, with one parameter floating}{figure.17}{}}
\@writefile{lof}{\contentsline {figure}{\numberline {18}{\ignorespaces A \(\chi ^2\) and likelihood fit using ROOT fit panel, with two parameters floating.}}{21}{figure.18}}
\@writefile{lof}{\contentsline {subfigure}{\numberline{(a)}{\ignorespaces {A \(\chi ^2\) fit using ROOT fit panel.}}}{21}{figure.18}}
\@writefile{lof}{\contentsline {subfigure}{\numberline{(b)}{\ignorespaces {A likelihood fit using ROOT fit panel.}}}{21}{figure.18}}
\newlabel{fig:p0p1_2d_fitpanel}{{18}{21}{A \(\chi ^2\) and likelihood fit using ROOT fit panel, with two parameters floating}{figure.18}{}}
\@writefile{toc}{\contentsline {subsection}{\numberline {3.5}Overall Conclusions}{22}{subsection.3.5}}
\@writefile{lof}{\contentsline {figure}{\numberline {19}{\ignorespaces The behavior of \(\chi ^2\) when we allow the \(p_0^2\) parameter in the function to range over negative values. This wouldn't add any physical value to a problem, but it is an interesting behavior that the function takes on.}}{23}{figure.19}}
\newlabel{fig:p0_neg}{{19}{23}{The behavior of \(\chi ^2\) when we allow the \(p_0^2\) parameter in the function to range over negative values. This wouldn't add any physical value to a problem, but it is an interesting behavior that the function takes on}{figure.19}{}}
\citation{ROOT}
\bibdata{refs}
\bibcite{ROOT}{1}
\bibstyle{plain}
