\BOOKMARK [1][-]{section.1}{Introduction}{}% 1
\BOOKMARK [1][-]{section.2}{Methods}{}% 2
\BOOKMARK [2][-]{subsection.2.1}{}{section.2}% 3
\BOOKMARK [1][-]{section.3}{Results}{}% 4
\BOOKMARK [1][-]{section.4}{Conclusions}{}% 5
